{
  "simulation": "loom.Jetty_VirtualThreads_Simulation",
  "simulationId": "jetty-virtualthreads-simulation-20220726235020689",
  "start": 1658879421647,
  "description": "",
  "scenarios": ["JETTY_VIRTUAL, 1000 users"],
  "assertions": [

  ]
}