{
    "name": "All Requests",
    "numberOfRequests": {
        "total": 1000,
        "ok": 1000,
        "ko": 0
    },
    "minResponseTime": {
        "total": 15011,
        "ok": 15011,
        "ko": 0
    },
    "maxResponseTime": {
        "total": 20252,
        "ok": 20252,
        "ko": 0
    },
    "meanResponseTime": {
        "total": 17509,
        "ok": 17509,
        "ko": 0
    },
    "standardDeviation": {
        "total": 1432,
        "ok": 1432,
        "ko": 0
    },
    "percentiles1": {
        "total": 17560,
        "ok": 17560,
        "ko": 0
    },
    "percentiles2": {
        "total": 18709,
        "ok": 18709,
        "ko": 0
    },
    "percentiles3": {
        "total": 19755,
        "ok": 19755,
        "ko": 0
    },
    "percentiles4": {
        "total": 19974,
        "ok": 19974,
        "ko": 0
    },
    "group1": {
    "name": "t < 800 ms",
    "count": 0,
    "percentage": 0
},
    "group2": {
    "name": "t ≥ 800 ms <br> t < 1200 ms",
    "count": 0,
    "percentage": 0
},
    "group3": {
    "name": "t ≥ 1200 ms",
    "count": 1000,
    "percentage": 100
},
    "group4": {
    "name": "failed",
    "count": 0,
    "percentage": 0
},
    "meanNumberOfRequestsPerSecond": {
        "total": 33.333333333333336,
        "ok": 33.333333333333336,
        "ko": 0
    }
}