{
    "name": "All Requests",
    "numberOfRequests": {
        "total": 1000,
        "ok": 1000,
        "ko": 0
    },
    "minResponseTime": {
        "total": 15014,
        "ok": 15014,
        "ko": 0
    },
    "maxResponseTime": {
        "total": 20170,
        "ok": 20170,
        "ko": 0
    },
    "meanResponseTime": {
        "total": 17550,
        "ok": 17550,
        "ko": 0
    },
    "standardDeviation": {
        "total": 1489,
        "ok": 1489,
        "ko": 0
    },
    "percentiles1": {
        "total": 17617,
        "ok": 17617,
        "ko": 0
    },
    "percentiles2": {
        "total": 18907,
        "ok": 18910,
        "ko": 0
    },
    "percentiles3": {
        "total": 19784,
        "ok": 19784,
        "ko": 0
    },
    "percentiles4": {
        "total": 19996,
        "ok": 19996,
        "ko": 0
    },
    "group1": {
    "name": "t < 800 ms",
    "count": 0,
    "percentage": 0
},
    "group2": {
    "name": "t ≥ 800 ms <br> t < 1200 ms",
    "count": 0,
    "percentage": 0
},
    "group3": {
    "name": "t ≥ 1200 ms",
    "count": 1000,
    "percentage": 100
},
    "group4": {
    "name": "failed",
    "count": 0,
    "percentage": 0
},
    "meanNumberOfRequestsPerSecond": {
        "total": 33.333333333333336,
        "ok": 33.333333333333336,
        "ko": 0
    }
}